module conzumer

go 1.17

require (
	github.com/Shopify/sarama v1.30.1
	github.com/wvanbergen/kafka v0.0.0-20171203153745-e2edea948ddf
)

require (
	github.com/davecgh/go-spew v1.1.1 // indirect
	github.com/eapache/go-resiliency v1.2.0 // indirect
	github.com/eapache/go-xerial-snappy v0.0.0-20180814174437-776d5712da21 // indirect
	github.com/eapache/queue v1.1.0 // indirect
	github.com/golang/snappy v0.0.4 // indirect
	github.com/hashicorp/go-uuid v1.0.2 // indirect
	github.com/jcmturner/aescts/v2 v2.0.0 // indirect
	github.com/jcmturner/dnsutils/v2 v2.0.0 // indirect
	github.com/jcmturner/gofork v1.0.0 // indirect
	github.com/jcmturner/gokrb5/v8 v8.4.2 // indirect
	github.com/jcmturner/rpc/v2 v2.0.3 // indirect
	github.com/klauspost/compress v1.13.6 // indirect
	github.com/pierrec/lz4 v2.6.1+incompatible // indirect
	github.com/rcrowley/go-metrics v0.0.0-20201227073835-cf1acfcdf475 // indirect
	github.com/samuel/go-zookeeper v0.0.0-20201211165307-7117e9ea2414 // indirect
	github.com/wvanbergen/kazoo-go v0.0.0-20180202103751-f72d8611297a // indirect
	golang.org/x/crypto v0.0.0-20210920023735-84f357641f63 // indirect
	golang.org/x/net v0.0.0-20210917221730-978cfadd31cf // indirect
)
